<svg width="26" height="20" viewBox="0 0 26 20" fill="none" xmlns="http://www.w3.org/2000/svg">
<circle cx="16" cy="10" r="9" transform="rotate(-90 16 10)" stroke="#0EB400" stroke-width="2"/>
<path d="M20 10L15 7.11325L15 12.8868L20 10ZM-6.55671e-08 10.5L15.5 10.5L15.5 9.5L6.55671e-08 9.5L-6.55671e-08 10.5Z" fill="#333333"/>
</svg>
