<svg width="160" height="31" viewBox="0 0 160 31" fill="none" xmlns="http://www.w3.org/2000/svg">
<path d="M0 15.2816C0 10.9635 1.4312 7.32472 4.34131 4.46218C7.20371 1.55113 10.8294 0.0956078 15.2184 0.0956078C19.3689 0.0956078 22.8992 1.21151 25.6662 3.44332C26.0479 3.73442 26.1433 4.31663 25.9047 4.75329L23.5194 8.48914C23.2332 8.97431 22.613 9.11987 22.1836 8.78024C21.468 8.29507 20.657 7.85841 19.7029 7.47027C18.3671 6.93658 17.1267 6.69399 15.8863 6.69399C13.0239 6.69399 10.8771 7.47027 9.44593 9.07135C8.01473 10.6724 7.29913 12.6616 7.29913 15.039C7.29913 17.756 8.11014 19.9393 9.73217 21.5404C11.3542 23.1414 13.3102 23.9662 15.6478 23.9662C17.7469 23.9662 19.7029 23.2385 21.5157 21.8315V20.5215C21.5157 19.9878 21.0864 19.5511 20.5616 19.5511H17.413V14.4083C17.413 13.8746 17.8423 13.4379 18.3671 13.4379H26.8589C27.3837 13.4379 27.813 13.8746 27.813 14.4083V30.0794H21.8974V29.2546L21.9451 27.9932H21.8497C20.991 28.7695 19.846 29.4002 18.4625 29.8369C17.079 30.322 15.6478 30.5161 14.2166 30.5161C10.3047 30.5161 6.96518 29.1091 4.19819 26.3436C1.38349 23.6266 0 19.9393 0 15.2816Z" fill="#0EB400"/>
<path d="M32.1588 29.6469V1.90826C32.1588 1.38934 32.6031 0.964764 33.1461 0.964764H42.624C45.2896 0.964764 47.2148 1.20064 48.4489 1.62521C50.1766 2.28565 51.5588 3.3235 52.4967 4.73873C53.484 6.15397 53.9776 7.89943 53.9776 9.97512C53.9776 11.5791 53.5827 13.0886 52.7929 14.5511C52.0031 16.0135 50.9171 17.0985 49.4855 17.7589V17.8533C49.7817 18.1835 50.1273 18.7968 50.6209 19.5987L56.4952 29.6469H48.3008L42.9695 19.9761H40.5013C39.9583 19.9761 39.514 20.4007 39.514 20.9196V29.6469H32.1588ZM39.514 13.985H42.7227C43.9074 13.985 44.8453 13.6547 45.5364 13.0415C46.2275 12.4282 46.5237 11.5791 46.5237 10.4469C46.5237 8.8901 45.9313 7.85226 44.7466 7.38051C44.1049 7.09747 43.167 6.95594 41.9822 6.95594H40.5013C39.9583 6.95594 39.514 7.38051 39.514 7.89943V13.985Z" fill="#0EB400"/>
<path d="M56.4952 15.2574C56.4952 10.8978 57.9259 7.31321 60.7872 4.40679C63.6484 1.50038 67.2728 0.0956078 71.7078 0.0956078C73.7584 0.0956078 75.7136 0.43469 77.6211 1.16129C79.2425 1.74258 80.7208 2.6145 81.9607 3.68019C82.2945 3.97083 82.3899 4.50367 82.1515 4.93963L79.8625 8.76642C79.5763 9.25082 78.9087 9.3477 78.4795 9.00862C77.7165 8.42733 76.8581 7.94293 75.8566 7.50697C74.5691 6.92569 73.2815 6.68348 72.0416 6.68348C69.3233 6.68348 67.3204 7.50697 65.9375 9.15394C64.5545 10.8009 63.8869 12.787 63.8869 15.1121C63.8869 17.4857 64.6022 19.5686 66.0329 21.3124C67.4635 23.0563 69.4664 23.9282 72.0893 23.9282C74.5691 23.9282 76.8581 22.9594 79.0041 21.0702C79.4333 20.6827 80.1009 20.7796 80.4347 21.2156L83.4391 25.5752C80.2916 28.8691 76.4289 30.5161 71.7555 30.5161C67.1774 30.5161 63.4577 29.0629 60.6918 26.2049C57.8782 23.3469 56.4952 19.7139 56.4952 15.2574Z" fill="#0EB400"/>
<path d="M91.0442 7.91802V1.70355H94.8511V3.00728H92.5652V7.91802H91.0442Z" fill="white"/>
<path d="M95.3712 4.77167C95.3712 3.87354 95.6783 3.12027 96.2925 2.51186C96.9125 1.90345 97.6889 1.59925 98.6218 1.59925C99.5547 1.59925 100.328 1.90345 100.942 2.51186C101.562 3.12027 101.872 3.87354 101.872 4.77167C101.872 5.69298 101.562 6.46653 100.942 7.09232C100.328 7.71232 99.5547 8.02232 98.6218 8.02232C97.6889 8.02232 96.9125 7.71232 96.2925 7.09232C95.6783 6.46653 95.3712 5.69298 95.3712 4.77167ZM96.9443 4.77167C96.9443 5.29896 97.1066 5.74223 97.4311 6.10148C97.7556 6.45494 98.1525 6.63167 98.6218 6.63167C99.0912 6.63167 99.4881 6.45494 99.8126 6.10148C100.137 5.74223 100.299 5.29896 100.299 4.77167C100.299 4.26756 100.137 3.84457 99.8126 3.5027C99.4881 3.16083 99.0912 2.9899 98.6218 2.9899C98.1525 2.9899 97.7556 3.16083 97.4311 3.5027C97.1066 3.84457 96.9443 4.26756 96.9443 4.77167Z" fill="white"/>
<path d="M103.101 7.91802V1.70355H105.682C106.285 1.70355 106.771 1.90345 107.142 2.30327C107.519 2.70308 107.707 3.21588 107.707 3.84167C107.707 4.47326 107.519 4.99186 107.142 5.39746C106.771 5.79728 106.285 5.99718 105.682 5.99718H104.622V7.91802H103.101ZM104.622 4.69345H105.369C105.624 4.69345 105.818 4.61522 105.952 4.45878C106.091 4.30233 106.16 4.09663 106.16 3.84167C106.16 3.58672 106.093 3.38392 105.96 3.23326C105.827 3.08261 105.639 3.00728 105.395 3.00728H104.622V4.69345Z" fill="white"/>
<path d="M108.455 4.77167C108.455 3.87354 108.762 3.12027 109.376 2.51186C109.996 1.90345 110.772 1.59925 111.705 1.59925C112.638 1.59925 113.412 1.90345 114.026 2.51186C114.646 3.12027 114.956 3.87354 114.956 4.77167C114.956 5.69298 114.646 6.46653 114.026 7.09232C113.412 7.71232 112.638 8.02232 111.705 8.02232C110.772 8.02232 109.996 7.71232 109.376 7.09232C108.762 6.46653 108.455 5.69298 108.455 4.77167ZM110.028 4.77167C110.028 5.29896 110.19 5.74223 110.515 6.10148C110.839 6.45494 111.236 6.63167 111.705 6.63167C112.175 6.63167 112.572 6.45494 112.896 6.10148C113.221 5.74223 113.383 5.29896 113.383 4.77167C113.383 4.26756 113.221 3.84457 112.896 3.5027C112.572 3.16083 112.175 2.9899 111.705 2.9899C111.236 2.9899 110.839 3.16083 110.515 3.5027C110.19 3.84457 110.028 4.26756 110.028 4.77167Z" fill="white"/>
<path d="M117.606 6.62298H119.526V3.00728H118.284V3.29411C118.284 3.86775 118.229 4.45588 118.118 5.05849C118.014 5.66111 117.843 6.1826 117.606 6.62298ZM115.407 6.62298H116.05C116.577 5.70746 116.841 4.55728 116.841 3.17242V1.70355H121.047V6.62298H121.743V9.13484H120.396V7.91802H116.806V9.13484H115.407V6.62298Z" fill="white"/>
<path d="M122.515 4.79775C122.515 3.88223 122.819 3.12027 123.427 2.51186C124.041 1.90345 124.824 1.59925 125.774 1.59925C126.208 1.59925 126.631 1.67458 127.043 1.82523C127.454 1.97009 127.808 2.18738 128.103 2.4771L127.399 3.62438C127.191 3.43896 126.944 3.28831 126.66 3.17242C126.382 3.05074 126.11 2.9899 125.843 2.9899C125.264 2.9899 124.826 3.16373 124.531 3.51139C124.235 3.85326 124.088 4.27046 124.088 4.76298C124.088 5.26709 124.238 5.70457 124.54 6.07541C124.847 6.44625 125.281 6.63167 125.843 6.63167C126.434 6.63167 126.985 6.37671 127.495 5.86681L128.277 6.97933C127.605 7.67466 126.77 8.02232 125.774 8.02232C124.789 8.02232 123.998 7.72101 123.401 7.11839C122.81 6.50998 122.515 5.73644 122.515 4.79775Z" fill="white"/>
<path d="M129.31 7.91802V1.70355H130.831V4.10242H131.457L132.743 1.70355H134.377L132.7 4.67606V4.69345L134.473 7.91802H132.769L131.457 5.39746H130.831V7.91802H129.31Z" fill="white"/>
<path d="M134.91 4.77167C134.91 3.87354 135.217 3.12027 135.832 2.51186C136.452 1.90345 137.228 1.59925 138.161 1.59925C139.094 1.59925 139.867 1.90345 140.482 2.51186C141.102 3.12027 141.412 3.87354 141.412 4.77167C141.412 5.69298 141.102 6.46653 140.482 7.09232C139.867 7.71232 139.094 8.02232 138.161 8.02232C137.228 8.02232 136.452 7.71232 135.832 7.09232C135.217 6.46653 134.91 5.69298 134.91 4.77167ZM136.484 4.77167C136.484 5.29896 136.646 5.74223 136.97 6.10148C137.295 6.45494 137.692 6.63167 138.161 6.63167C138.63 6.63167 139.027 6.45494 139.352 6.10148C139.676 5.74223 139.838 5.29896 139.838 4.77167C139.838 4.26756 139.676 3.84457 139.352 3.5027C139.027 3.16083 138.63 2.9899 138.161 2.9899C137.692 2.9899 137.295 3.16083 136.97 3.5027C136.646 3.84457 136.484 4.26756 136.484 4.77167Z" fill="white"/>
<path d="M145.352 1.42542C144.888 1.42542 144.497 1.30663 144.178 1.06906C143.86 0.831494 143.7 0.507008 143.7 0.0956076V0H144.813V0.104299C144.813 0.272336 144.865 0.399812 144.969 0.486728C145.079 0.573644 145.207 0.617102 145.352 0.617102C145.491 0.617102 145.615 0.573644 145.725 0.486728C145.835 0.399812 145.891 0.272336 145.891 0.104299V0H146.994V0.0956076C146.994 0.507008 146.835 0.831494 146.516 1.06906C146.198 1.30663 145.809 1.42542 145.352 1.42542ZM142.64 7.91802V1.70355H144.161V4.60653L144.091 5.6669H144.109C144.294 5.23232 144.468 4.87887 144.63 4.60653L146.351 1.70355H147.89V7.91802H146.369V5.02373L146.438 3.96336H146.421C146.235 4.39793 146.061 4.75139 145.899 5.02373L144.17 7.91802H142.64Z" fill="white"/>
<path d="M91.0442 18.3479V12.1334H93.6256C94.2282 12.1334 94.7149 12.3333 95.0858 12.7331C95.4624 13.133 95.6507 13.6458 95.6507 14.2716C95.6507 14.9031 95.4624 15.4217 95.0858 15.8273C94.7149 16.2272 94.2282 16.4271 93.6256 16.4271H92.5652V18.3479H91.0442ZM92.5652 15.1233H93.3127C93.5676 15.1233 93.7618 15.0451 93.895 14.8887C94.0341 14.7322 94.1036 14.5265 94.1036 14.2716C94.1036 14.0166 94.037 13.8138 93.9037 13.6631C93.7704 13.5125 93.5821 13.4372 93.3388 13.4372H92.5652V15.1233Z" fill="white"/>
<path d="M96.7372 18.3479V12.1334H98.2582V15.0364L98.1887 16.0968H98.206C98.3915 15.6622 98.5653 15.3088 98.7275 15.0364L100.448 12.1334H101.987V18.3479H100.466V15.4536L100.535 14.3932H100.518C100.333 14.8278 100.159 15.1813 99.9965 15.4536L98.2669 18.3479H96.7372Z" fill="white"/>
<path d="M103.073 17.4961L103.82 16.4097C104.324 16.8558 104.895 17.0789 105.532 17.0789C105.978 17.0789 106.343 16.9659 106.627 16.74C106.911 16.5082 107.097 16.2098 107.184 15.8447H104.62V14.6279H107.192C107.105 14.2629 106.917 13.9674 106.627 13.7414C106.338 13.5154 105.973 13.4024 105.532 13.4024C104.959 13.4024 104.405 13.6342 103.872 14.0977L103.168 12.9504C103.759 12.3362 104.567 12.0291 105.593 12.0291C106.578 12.0291 107.36 12.3333 107.94 12.9417C108.519 13.5502 108.809 14.3063 108.809 15.2102C108.809 16.1489 108.502 16.9254 107.888 17.5396C107.273 18.148 106.485 18.4522 105.524 18.4522C104.62 18.4522 103.803 18.1335 103.073 17.4961Z" fill="white"/>
<path d="M109.35 17.0355C109.617 17.0007 109.834 16.9051 110.002 16.7487C110.176 16.5922 110.318 16.3025 110.428 15.8795C110.538 15.4565 110.593 14.8887 110.593 14.1759V12.1334H114.765V18.3479H113.244V13.4372H112.036V14.1933C112.036 15.6825 111.813 16.7602 111.367 17.4266C110.921 18.0872 110.248 18.4174 109.35 18.4174V17.0355Z" fill="white"/>
<path d="M117.676 18.3479V13.4372H115.79V12.1334H121.083V13.4372H119.197V18.3479H117.676Z" fill="white"/>
<path d="M121.623 15.2016C121.623 14.3034 121.93 13.5502 122.544 12.9417C123.164 12.3333 123.941 12.0291 124.874 12.0291C125.807 12.0291 126.58 12.3333 127.194 12.9417C127.814 13.5502 128.124 14.3034 128.124 15.2016C128.124 16.1229 127.814 16.8964 127.194 17.5222C126.58 18.1422 125.807 18.4522 124.874 18.4522C123.941 18.4522 123.164 18.1422 122.544 17.5222C121.93 16.8964 121.623 16.1229 121.623 15.2016ZM123.196 15.2016C123.196 15.7288 123.359 16.1721 123.683 16.5314C124.007 16.8848 124.404 17.0616 124.874 17.0616C125.343 17.0616 125.74 16.8848 126.064 16.5314C126.389 16.1721 126.551 15.7288 126.551 15.2016C126.551 14.6974 126.389 14.2745 126.064 13.9326C125.74 13.5907 125.343 13.4198 124.874 13.4198C124.404 13.4198 124.007 13.5907 123.683 13.9326C123.359 14.2745 123.196 14.6974 123.196 15.2016Z" fill="white"/>
<path d="M129.353 18.3479V12.1334H131.934C132.537 12.1334 133.023 12.3333 133.394 12.7331C133.771 13.133 133.959 13.6458 133.959 14.2716C133.959 14.9031 133.771 15.4217 133.394 15.8273C133.023 16.2272 132.537 16.4271 131.934 16.4271H130.874V18.3479H129.353ZM130.874 15.1233H131.621C131.876 15.1233 132.07 15.0451 132.203 14.8887C132.343 14.7322 132.412 14.5265 132.412 14.2716C132.412 14.0166 132.345 13.8138 132.212 13.6631C132.079 13.5125 131.891 13.4372 131.647 13.4372H130.874V15.1233Z" fill="white"/>
<path d="M134.715 15.2276C134.715 14.3121 135.02 13.5502 135.628 12.9417C136.242 12.3333 137.024 12.0291 137.975 12.0291C138.409 12.0291 138.832 12.1045 139.244 12.2551C139.655 12.4 140.008 12.6173 140.304 12.907L139.6 14.0543C139.391 13.8688 139.145 13.7182 138.861 13.6023C138.583 13.4806 138.311 13.4198 138.044 13.4198C137.465 13.4198 137.027 13.5936 136.732 13.9413C136.436 14.2831 136.288 14.7003 136.288 15.1929C136.288 15.697 136.439 16.1344 136.74 16.5053C137.048 16.8761 137.482 17.0616 138.044 17.0616C138.635 17.0616 139.186 16.8066 139.696 16.2967L140.478 17.4092C139.806 18.1045 138.971 18.4522 137.975 18.4522C136.99 18.4522 136.199 18.1509 135.602 17.5483C135.011 16.9399 134.715 16.1663 134.715 15.2276Z" fill="white"/>
<path d="M141.511 18.3479V12.1334H143.032V14.5323H143.658L144.944 12.1334H146.578L144.901 15.1059V15.1233L146.674 18.3479H144.97L143.658 15.8273H143.032V18.3479H141.511Z" fill="white"/>
<path d="M147.637 18.3479V12.1334H149.158V15.0364L149.088 16.0968H149.106C149.291 15.6622 149.465 15.3088 149.627 15.0364L151.348 12.1334H152.887V18.3479H151.366V15.4536L151.435 14.3932H151.418C151.232 14.8278 151.058 15.1813 150.896 15.4536L149.167 18.3479H147.637Z" fill="white"/>
<path d="M157.162 11.8553C156.698 11.8553 156.307 11.7365 155.989 11.4989C155.67 11.2614 155.511 10.9369 155.511 10.5255V10.4299H156.623V10.5342C156.623 10.7022 156.675 10.8297 156.78 10.9166C156.89 11.0035 157.017 11.047 157.162 11.047C157.301 11.047 157.426 11.0035 157.536 10.9166C157.646 10.8297 157.701 10.7022 157.701 10.5342V10.4299H158.805V10.5255C158.805 10.9369 158.645 11.2614 158.327 11.4989C158.008 11.7365 157.62 11.8553 157.162 11.8553ZM154.45 18.3479V12.1334H155.971V15.0364L155.902 16.0968H155.919C156.104 15.6622 156.278 15.3088 156.441 15.0364L158.161 12.1334H159.7V18.3479H158.179V15.4536L158.248 14.3932H158.231C158.046 14.8278 157.872 15.1813 157.71 15.4536L155.98 18.3479H154.45Z" fill="white"/>
<path d="M91.0442 28.7778V22.5633H92.5652V27.4827H94.7207V22.5633H96.2417V27.4827H97.0066V29.9946H95.6594V28.7778H91.0442Z" fill="white"/>
<path d="M98.1971 28.7778V22.5633H102.091V23.867H99.7181V24.997H101.613V26.3007H99.7181V27.474H102.213V28.7778H98.1971Z" fill="white"/>
<path d="M103.466 28.7778V22.5633H104.987V25.0491H107.246V22.5633H108.768V28.7778H107.246V26.3441H104.987V28.7778H103.466Z" fill="white"/>
<path d="M111.677 28.7778V23.867H109.791V22.5633H115.084V23.867H113.198V28.7778H111.677Z" fill="white"/>
<path d="M116.108 28.7778V22.5633H118.689C119.292 22.5633 119.779 22.7632 120.149 23.163C120.526 23.5628 120.714 24.0756 120.714 24.7014C120.714 25.333 120.526 25.8516 120.149 26.2572C119.779 26.657 119.292 26.8569 118.689 26.8569H117.629V28.7778H116.108ZM117.629 25.5532H118.376C118.631 25.5532 118.825 25.475 118.959 25.3185C119.098 25.1621 119.167 24.9564 119.167 24.7014C119.167 24.4465 119.101 24.2437 118.967 24.093C118.834 23.9424 118.646 23.867 118.402 23.867H117.629V25.5532Z" fill="white"/>
</svg>
