<svg width="18" height="14" viewBox="0 0 18 14" fill="none" xmlns="http://www.w3.org/2000/svg">
<path opacity="0.4" d="M14.2616 0.00195312H3.73837C1.67372 0.00195312 0 1.7102 0 3.81744V9.18647C0 11.2937 1.67372 13.002 3.73837 13.002H14.2616C16.3263 13.002 18 11.2937 18 9.18647V3.81744C18 1.7102 16.3263 0.00195312 14.2616 0.00195312ZM11.7334 6.76318L6.81133 9.15913C6.68017 9.22297 6.52868 9.12538 6.52868 8.97709V4.03542C6.52868 3.88502 6.68415 3.78755 6.81558 3.85553L11.7377 6.40125C11.884 6.47693 11.8815 6.69112 11.7334 6.76318Z" fill="white"/>
</svg>
