<svg width="92" height="33" viewBox="0 0 92 33" fill="none" xmlns="http://www.w3.org/2000/svg">
<path d="M29.4122 0.0012207V0.00721542L26.5663 2.8604V0.0012207H23.7196V0.00150472V0.0012207L18.976 4.75579V17.1178H20.8734V5.70704L24.6687 1.90316V17.1178H26.5663V5.70704L30.361 1.90316V17.1178H32.2587V0.0012207H29.4122Z" fill="#828282"/>
<path d="M5.69379 1.90275V15.2155H1.89879V5.70636L5.69379 1.90275ZM0.00113381 17.1174H7.59144V0.000812168H4.74468V0.00109618L4.7444 0.000244141L0 4.75538L0.00113381 4.75652V17.1174Z" fill="#828282"/>
<path d="M11.3864 1.90316H15.1814V15.2162H11.3864V1.90316ZM17.079 0.0012207H9.48901V17.1178H17.079V0.0012207Z" fill="#828282"/>
<path d="M32.2593 19.0195H0.0010376V20.9215H32.2593V19.0195Z" fill="#828282"/>
<path d="M11.3864 28.5273H1.89869V24.7237H11.3864V28.5273ZM0.0010376 22.8218V32.3309H1.89869V30.4293H13.284V22.8218H0.0010376Z" fill="#828282"/>
<path d="M30.3622 28.5273H24.6696V24.7237H30.3622V28.5273ZM17.0792 24.7237H22.7719V28.5273H17.0792V24.7237ZM15.1819 22.8218V30.4293H22.7722V32.3309H24.6696V30.4293H32.2599V22.8218H15.1819Z" fill="#828282"/>
<path d="M62.1592 17.5496H60.4966V19.9057H62.1592C62.9006 19.9057 63.343 19.437 63.343 18.7269C63.343 18.0306 62.9006 17.5496 62.1592 17.5496ZM62.2429 21.3951H58.8331V12.8386H64.4674V14.3285H60.4966V16.0585H62.2429C63.9536 16.0585 65.0054 17.1655 65.0054 18.7269C65.0054 20.2898 63.9652 21.3951 62.2429 21.3951Z" fill="#828282"/>
<path d="M70.1278 15.3635L69.0513 18.4758H71.168L70.1278 15.3635ZM72.114 21.3961L71.611 19.8825H68.5847L68.0697 21.3961H66.3362L69.4342 12.8396H70.7378L73.848 21.3961H72.114Z" fill="#828282"/>
<path d="M80.1376 21.3961V17.814H77.2547V21.3961H75.5927V12.8396H77.2547V16.3361H80.1376V12.8396H81.8008V21.3961H80.1376Z" fill="#828282"/>
<path d="M84.405 21.3961V12.8396H86.0673V16.9018L88.8188 12.8396H90.8052L87.9459 16.8542L91.0914 21.3961H89.0586L86.0673 16.9252V21.3961H84.405Z" fill="#828282"/>
<path d="M47.4399 0.00439453H45.5425V32.3286H47.4399V0.00439453Z" fill="#828282"/>
</svg>
