<svg width="157" height="38" viewBox="0 0 157 38" fill="none" xmlns="http://www.w3.org/2000/svg">
<path fill-rule="evenodd" clip-rule="evenodd" d="M0 1.27661H28.8145V29.6315H0V1.27661ZM13.6395 14.2232L8.40047 23.7964H11.7426L15.446 16.8673H22.8529L21.4076 14.2232H13.6395ZM14.1814 10.8498H16.1686L15.2654 9.29987L14.1814 10.8498ZM15.3557 3.73829L3.79376 23.7964H7.22621L12.9168 13.4939H20.956L15.3557 3.73829ZM18.0655 20.2407L17.3429 21.6083H22.8529L21.8593 20.2407H18.0655ZM12.2846 24.8905H3.16147L1.80655 27.261H14.1814L15.988 23.9788H27.0983L23.4852 17.779L16.259 17.8702L12.2846 24.8905Z" fill="#828282"/>
<path fill-rule="evenodd" clip-rule="evenodd" d="M1.08395 37.0165H0.45166V32.549H1.8969C1.98723 32.549 2.07756 32.549 2.16788 32.549C2.25821 32.549 2.43887 32.549 2.61952 32.6402C2.80018 32.7314 2.98083 32.8226 3.16149 33.0049C3.34214 33.1873 3.43247 33.4608 3.43247 33.8255C3.43247 33.9166 3.43247 34.0078 3.43247 34.0078C3.43247 34.099 3.43247 34.1902 3.34214 34.2813C3.25182 34.4637 3.16149 34.7372 2.98083 34.9196C2.80018 35.1019 2.43887 35.1931 1.98723 35.1931H1.08395V37.0165ZM1.80657 34.5549C1.8969 34.5549 1.8969 34.5549 1.98723 34.5549C2.07756 34.5549 2.07756 34.5549 2.16788 34.5549C2.25821 34.5549 2.43887 34.4637 2.52919 34.3725C2.61952 34.1902 2.70985 34.0078 2.70985 33.8255C2.70985 33.552 2.61952 33.3696 2.52919 33.2784C2.34854 33.1873 2.25821 33.0961 2.07756 33.0961H1.98723H1.8969H1.08395V34.646H1.80657V34.5549ZM3.97444 37.1077V32.549H4.60673V35.7401L7.7682 32.4579V37.0165H7.1359V33.8255L3.97444 37.1077ZM8.85213 36.1048C9.03278 36.196 9.12311 36.2872 9.39409 36.3783C9.57475 36.4695 9.84573 36.4695 10.0264 36.4695C10.478 36.4695 10.9297 36.2872 11.2006 36.0136C11.4716 35.7401 11.6523 35.3754 11.7426 34.9196H9.57475V34.3725H11.7426C11.6523 33.9166 11.4716 33.6431 11.2006 33.3696C10.9297 33.0961 10.478 33.0049 10.0264 33.0049C9.93606 33.0049 9.84573 33.0049 9.7554 33.0049C9.66508 33.0049 9.57475 33.0049 9.48442 33.0961C9.39409 33.0961 9.30377 33.1873 9.12311 33.1873C9.03278 33.2784 8.94245 33.2784 8.85213 33.3696L8.40049 32.9137C8.67147 32.7314 8.94245 32.549 9.21344 32.549C9.48442 32.4579 9.7554 32.4579 10.0264 32.4579C10.749 32.4579 11.291 32.6402 11.7426 33.0961C12.1942 33.552 12.3749 34.099 12.3749 34.7372V34.8284V34.9196C12.2846 35.4666 12.1039 35.9225 11.7426 36.3783C11.3813 36.8342 10.749 37.0165 10.0264 37.0165C9.84573 37.0165 9.57475 37.0165 9.30376 36.9254C9.03278 36.8342 8.7618 36.743 8.40049 36.4695L8.85213 36.1048ZM14.6331 33.0049V35.5578C14.6331 36.0136 14.5428 36.3783 14.3621 36.5607C14.1815 36.743 14.0008 36.9254 13.8201 36.9254C13.7298 36.9254 13.6395 37.0165 13.4588 37.0165C13.3685 37.0165 13.2782 37.0165 13.1879 37.0165C13.0975 37.0165 13.0975 37.0165 13.0072 37.0165H12.9169V36.4695H13.0072H13.0975H13.1879H13.2782C13.3685 36.4695 13.4588 36.4695 13.4588 36.4695C13.5492 36.4695 13.5492 36.4695 13.6395 36.3783C13.7298 36.2872 13.8201 36.196 13.8201 36.1048C13.8201 36.0136 13.9105 35.8313 13.9105 35.7401C13.9105 35.6489 13.9105 35.5578 13.9105 35.5578C13.9105 35.4666 13.9105 35.4666 13.9105 35.3754V32.6402H16.801V37.1077H16.1687V33.1873H14.6331V33.0049ZM18.6075 33.0049H17.5236V32.4579H20.4141V33.0049H19.3301V36.9254H18.6978V33.0049H18.6075ZM20.8657 34.7372C20.8657 34.099 21.0464 33.6431 21.498 33.0961C21.9496 32.6402 22.4916 32.3667 23.2142 32.3667C23.9368 32.3667 24.4788 32.6402 24.9304 33.0961C25.3821 33.552 25.5627 34.099 25.5627 34.7372C25.5627 35.3754 25.3821 35.8313 24.9304 36.3783C24.4788 36.8342 23.9368 37.1077 23.2142 37.1077C22.4916 37.1077 21.8593 36.8342 21.498 36.3783C21.0464 35.8313 20.8657 35.2842 20.8657 34.7372ZM21.498 34.7372C21.498 35.1931 21.6786 35.6489 21.9496 36.0136C22.2206 36.3783 22.6722 36.5607 23.2142 36.5607C23.7562 36.5607 24.1175 36.3783 24.4788 36.0136C24.8401 35.6489 24.9304 35.2842 24.9304 34.7372C24.9304 34.2813 24.7498 33.8255 24.4788 33.4608C24.2078 33.0961 23.7562 32.9137 23.2142 32.9137C22.6722 32.9137 22.3109 33.0961 21.9496 33.4608C21.6786 33.8255 21.498 34.2813 21.498 34.7372ZM26.9176 37.0165H26.2854V32.549H27.7306C27.8209 32.549 27.9112 32.549 28.0016 32.549C28.1822 32.549 28.2726 32.549 28.4532 32.6402C28.6339 32.7314 28.8145 32.8226 28.9952 33.0049C29.1758 33.1873 29.2662 33.4608 29.2662 33.8255C29.2662 33.9166 29.2662 34.0078 29.2662 34.0078C29.2662 34.099 29.2662 34.1902 29.1758 34.2813C29.0855 34.4637 28.9952 34.7372 28.8145 34.9196C28.6339 35.1019 28.2726 35.1931 27.8209 35.1931H27.008V37.0165H26.9176ZM27.6403 34.5549C27.7306 34.5549 27.7306 34.5549 27.8209 34.5549C27.9112 34.5549 27.9112 34.5549 28.0016 34.5549C28.0919 34.5549 28.2726 34.4637 28.3629 34.3725C28.4532 34.2813 28.5435 34.099 28.5435 33.8255C28.5435 33.552 28.4532 33.3696 28.3629 33.2784C28.1822 33.1873 28.0919 33.0961 27.9112 33.0961H27.8209H27.7306H27.0983V34.646H27.6403V34.5549Z" fill="#828282"/>
<path fill-rule="evenodd" clip-rule="evenodd" d="M32.6986 31.0901C32.6986 31.546 32.5179 32.0018 32.2469 32.2754C31.8856 32.64 31.5243 32.8224 31.0727 32.8224C30.621 32.8224 30.1694 32.64 29.8984 32.3665C29.5371 32.0018 29.3564 31.6371 29.3564 31.1813C29.3564 30.7254 29.5371 30.2695 29.8984 29.996C30.2597 29.6313 30.621 29.449 31.0727 29.449C31.5243 29.449 31.9759 29.6313 32.2469 29.996C32.5179 30.1784 32.6986 30.6342 32.6986 31.0901ZM32.5179 31.0901C32.5179 30.6342 32.3373 30.2695 32.0663 29.996C31.7953 29.7225 31.434 29.5402 30.9823 29.5402C30.5307 29.5402 30.1694 29.7225 29.8984 29.996C29.6274 30.2695 29.4468 30.6342 29.4468 31.0901C29.4468 31.546 29.6274 31.9107 29.8984 32.1842C30.1694 32.4577 30.5307 32.64 30.9823 32.64C31.434 32.64 31.7953 32.4577 32.0663 32.1842C32.3373 31.9107 32.5179 31.546 32.5179 31.0901ZM30.1694 30.0872C30.2597 30.1784 30.2597 30.1784 30.35 30.2695C30.35 30.2695 30.4404 30.3607 30.4404 30.4519V31.546C30.4404 31.6371 30.4404 31.7283 30.35 31.8195C30.35 31.8195 30.2597 31.9107 30.1694 31.9107H30.892V31.8195C30.8017 31.8195 30.7114 31.8195 30.7114 31.7283C30.7114 31.7283 30.7114 31.6371 30.7114 31.4548V30.9989H30.892L31.5243 31.8195H31.9759V31.7283C31.8856 31.7283 31.8856 31.7283 31.8856 31.7283C31.8856 31.7283 31.7953 31.6371 31.705 31.546L31.2533 30.9989C31.434 30.9989 31.5243 30.9077 31.6146 30.8166C31.705 30.7254 31.705 30.6342 31.705 30.5431C31.705 30.4519 31.6146 30.2695 31.5243 30.1784C31.434 30.0872 31.2533 30.0872 31.0727 30.0872H30.1694ZM30.7114 30.9989C30.8017 30.9989 30.8017 30.9989 30.8017 30.9989C30.9823 30.9989 31.163 30.9989 31.163 30.9078C31.2533 30.8166 31.2533 30.7254 31.2533 30.6342C31.2533 30.5431 31.2533 30.4519 31.163 30.3607C31.0727 30.2695 30.9823 30.2695 30.892 30.2695C30.8017 30.2695 30.7114 30.2695 30.621 30.2695V30.9989H30.7114Z" fill="#828282"/>
<path fill-rule="evenodd" clip-rule="evenodd" d="M37.1247 8.57055H36.1311V1.55019H38.3893C38.4796 1.55019 38.6603 1.55019 38.8409 1.55019C39.0216 1.55019 39.2926 1.64137 39.5636 1.73254C39.8345 1.82371 40.1958 2.00606 40.3765 2.37075C40.6475 2.64427 40.7378 3.10014 40.7378 3.64718C40.7378 3.73835 40.7378 3.82953 40.7378 4.01187C40.7378 4.10305 40.7378 4.2854 40.6475 4.37657C40.5572 4.74126 40.2862 5.01478 40.0152 5.2883C39.6539 5.56182 39.1119 5.74417 38.3893 5.74417H37.1247V8.57055ZM38.299 4.83244C38.3893 4.83244 38.4796 4.83244 38.5699 4.83244C38.6603 4.83244 38.7506 4.83244 38.9313 4.74126C39.1119 4.65009 39.2926 4.55892 39.4732 4.37657C39.6539 4.19422 39.7442 3.9207 39.7442 3.55601C39.7442 3.10014 39.6539 2.82662 39.3829 2.64427C39.1119 2.46193 38.8409 2.37075 38.5699 2.37075C38.4796 2.37075 38.4796 2.37075 38.3893 2.37075C38.299 2.37075 38.299 2.37075 38.2086 2.37075H37.1247V4.74126H38.299V4.83244ZM41.6411 5.01478C41.6411 4.10305 42.0024 3.28249 42.725 2.46193C43.4476 1.73254 44.3509 1.36785 45.5252 1.36785C46.6994 1.36785 47.6027 1.73254 48.3253 2.46193C49.0479 3.19131 49.4093 4.10305 49.4093 5.01478C49.4093 5.92652 49.0479 6.83825 48.3253 7.56764C47.6027 8.29703 46.6994 8.66172 45.5252 8.66172C44.3509 8.66172 43.4476 8.29703 42.725 7.56764C42.0024 6.83825 41.6411 6.01769 41.6411 5.01478ZM42.8153 5.10596C42.8153 5.83534 43.0863 6.47356 43.538 7.0206C44.0799 7.56764 44.7122 7.84116 45.5252 7.84116C46.3381 7.84116 47.0607 7.56764 47.5124 7.0206C48.0543 6.47356 48.235 5.83534 48.235 5.10596C48.235 4.37657 47.964 3.73835 47.5124 3.19131C46.9704 2.64427 46.3381 2.37075 45.5252 2.37075C44.7122 2.37075 43.9896 2.64427 43.538 3.19131C42.996 3.64718 42.8153 4.2854 42.8153 5.10596ZM56.7258 7.47646C56.6355 7.65881 56.4548 7.74999 56.3645 7.84116C56.2742 7.93233 56.0935 8.02351 56.0032 8.11468C55.6419 8.3882 55.2806 8.47937 54.9192 8.57055C54.5579 8.66172 54.2869 8.66172 54.1063 8.66172C53.0224 8.66172 52.1191 8.3882 51.5771 7.74999C51.0352 7.11177 50.6738 6.38238 50.4932 5.653C50.4932 5.56182 50.4932 5.37948 50.4029 5.2883C50.4029 5.19713 50.4029 5.01478 50.4029 4.92361C50.4029 3.9207 50.7642 3.00897 51.5771 2.37075C52.2997 1.73254 53.2933 1.36785 54.3773 1.36785C54.7386 1.36785 55.0999 1.45902 55.4612 1.55019C55.7322 1.64137 56.0935 1.82371 56.3645 2.09723L56.4548 2.18841C56.5451 2.18841 56.5451 2.27958 56.6355 2.27958L55.9128 2.91779C55.7322 2.73545 55.5515 2.5531 55.2806 2.46193C55.0096 2.27958 54.6483 2.27958 54.2869 2.27958C53.5643 2.27958 52.932 2.5531 52.3901 3.00897C51.8481 3.46483 51.5771 4.10305 51.5771 4.92361C51.5771 5.653 51.7578 6.38238 52.2094 6.92942C52.6611 7.47646 53.2933 7.84116 54.016 7.84116C54.4676 7.84116 54.9192 7.74999 55.2806 7.56764C55.6419 7.38529 55.9128 7.20294 56.1838 6.83825L56.7258 7.47646ZM64.1327 7.47646C64.0423 7.65881 63.8617 7.74999 63.7713 7.84116C63.681 7.93233 63.5004 8.02351 63.41 8.11468C63.0487 8.3882 62.6874 8.47937 62.3261 8.57055C61.9648 8.66172 61.6938 8.66172 61.5132 8.66172C60.4292 8.66172 59.526 8.3882 58.984 7.74999C58.442 7.11177 58.0807 6.38238 57.9 5.653C57.9 5.56182 57.9001 5.37948 57.8097 5.2883C57.8097 5.19713 57.8097 5.01478 57.8097 4.92361C57.8097 3.9207 58.171 3.00897 58.984 2.37075C59.6163 1.73254 60.5195 1.36785 61.6035 1.36785C61.9648 1.36785 62.3261 1.45902 62.6874 1.55019C62.9584 1.64137 63.3197 1.82371 63.5907 2.09723L63.681 2.18841C63.7713 2.18841 63.7713 2.27958 63.8617 2.27958L63.1391 2.91779C62.9584 2.73545 62.7777 2.5531 62.5068 2.46193C62.2358 2.27958 61.8745 2.27958 61.5132 2.27958C60.7905 2.27958 60.1582 2.5531 59.6163 3.00897C58.984 3.46483 58.713 4.10305 58.713 4.92361C58.713 5.653 58.8937 6.38238 59.3453 6.92942C59.7969 7.47646 60.4292 7.84116 61.1518 7.84116C61.6035 7.84116 62.0551 7.74999 62.4164 7.56764C62.7777 7.38529 63.0487 7.20294 63.3197 6.83825L64.1327 7.47646ZM65.1263 8.75289V1.55019H66.1199V6.47356L71.1782 1.36785V8.57055H70.1846V3.64718L65.1263 8.75289ZM72.3525 8.75289V1.55019H73.3461V6.47356L78.4044 1.36785V8.57055H77.4108V3.64718L72.3525 8.75289ZM77.2302 0.000244141C77.1398 0.364938 76.9592 0.638458 76.6882 0.911978C76.4172 1.1855 76.0559 1.27667 75.6043 1.27667C75.2429 1.27667 74.972 1.1855 74.701 1.09433C74.5203 1.00315 74.3397 0.820805 74.159 0.638458C74.0687 0.547285 73.9784 0.364938 73.9784 0.273764C73.888 0.0914176 73.888 0.000244141 73.888 0.000244141H74.43C74.43 0.000244141 74.43 0.0914176 74.5203 0.0914176L74.6107 0.182591C74.701 0.273764 74.7913 0.364938 74.972 0.456111C75.1526 0.547285 75.3333 0.547285 75.6946 0.547285C75.9656 0.547285 76.2365 0.547285 76.4172 0.456111C76.5979 0.364938 76.6882 0.273764 76.7785 0.182591L76.8688 0.0914176C76.8688 0.0914176 76.8688 0.000244141 76.9592 0.000244141H77.2302ZM85.8113 7.47646C85.7209 7.65881 85.5403 7.74999 85.45 7.84116C85.3596 7.93233 85.179 8.02351 85.0887 8.11468C84.7273 8.3882 84.366 8.47937 84.0047 8.57055C83.6434 8.66172 83.3724 8.66172 83.1918 8.66172C82.1078 8.66172 81.2046 8.3882 80.6626 7.74999C80.1206 7.11177 79.7593 6.38238 79.5787 5.653C79.5787 5.56182 79.5787 5.37948 79.4883 5.2883C79.4883 5.19713 79.4883 5.01478 79.4883 4.92361C79.4883 3.9207 79.8497 3.00897 80.6626 2.37075C81.3852 1.73254 82.3788 1.36785 83.4628 1.36785C83.8241 1.36785 84.1854 1.45902 84.5467 1.55019C84.8177 1.64137 85.179 1.82371 85.45 2.09723L85.5403 2.18841C85.6306 2.18841 85.6306 2.27958 85.7209 2.27958L84.908 3.00897C84.7273 2.82662 84.5467 2.64427 84.2757 2.5531C84.0047 2.37075 83.6434 2.37075 83.2821 2.37075C82.5595 2.37075 81.9272 2.64427 81.3852 3.10014C80.8433 3.55601 80.5723 4.19422 80.5723 5.01478C80.5723 5.74417 80.7529 6.47356 81.2046 7.0206C81.6562 7.56764 82.2885 7.93233 83.0111 7.93233C83.4628 7.93233 83.9144 7.84116 84.2757 7.65881C84.637 7.47646 84.908 7.29412 85.179 6.92942L85.8113 7.47646ZM86.8952 1.55019H87.8888V4.55892H88.8824C89.0631 4.55892 89.2437 4.46774 89.4244 4.37657C89.5147 4.2854 89.6954 4.19422 89.6954 4.10305C89.6954 4.01187 89.7857 4.01187 89.7857 3.9207C89.7857 3.9207 89.7857 3.82953 89.876 3.82953L90.2373 2.73545C90.2373 2.64427 90.3277 2.5531 90.3277 2.46193C90.3277 2.37075 90.418 2.27958 90.418 2.27958C90.5986 1.91489 90.7793 1.73254 90.9599 1.64137C91.1406 1.55019 91.4116 1.45902 91.6826 1.45902H91.7729H91.8632H91.9536C91.9536 1.45902 92.0439 1.45902 92.1342 1.55019V2.46193H92.0439H91.9536C91.7729 2.46193 91.6826 2.5531 91.5922 2.64427C91.5019 2.73545 91.4116 2.82662 91.3213 3.00897C91.3213 3.10014 91.3213 3.10014 91.2309 3.19131C91.2309 3.28249 91.2309 3.28249 91.1406 3.28249L90.8696 4.19422C90.7793 4.37657 90.689 4.55892 90.5083 4.74126C90.3277 4.92361 90.147 5.01478 89.9663 5.10596C90.3277 5.2883 90.5986 5.47065 90.689 5.653C90.7793 5.83534 90.9599 6.01769 90.9599 6.29121L91.2309 7.38529C91.3213 7.56764 91.4116 7.74999 91.5019 7.84116C91.5922 7.93233 91.6826 8.02351 91.7729 8.02351C91.7729 8.02351 91.7729 8.02351 91.8632 8.02351C91.8632 8.02351 91.8632 8.02351 91.9536 8.02351H92.0439C92.0439 8.02351 92.0439 8.02351 92.1342 8.02351V8.93524C92.0439 8.93524 92.0439 8.93524 91.9536 8.93524C91.9536 8.93524 91.8632 8.93524 91.7729 8.93524C91.7729 8.93524 91.7729 8.93524 91.6826 8.93524H91.5922C91.3213 8.93524 91.1406 8.84407 90.9599 8.66172C90.7793 8.57055 90.5986 8.29703 90.5083 7.93233L90.147 6.6559C90.0567 6.38238 89.9663 6.10886 89.876 6.01769C89.7857 5.83534 89.605 5.74417 89.5147 5.653C89.4244 5.47065 89.2437 5.47065 89.1534 5.47065C89.0631 5.47065 88.9727 5.47065 88.8824 5.47065H87.8888V8.66172H86.8952V1.55019ZM94.2117 8.57055H93.1278L96.6506 1.36785L100.173 8.57055H99.0894L98.1861 6.6559H95.2053L94.2117 8.57055ZM97.8248 5.83534L96.6506 3.64718L95.4763 5.83534H97.8248ZM104.961 5.653L102.341 8.57055H101.077L103.696 5.653C103.606 5.653 103.425 5.653 103.335 5.56182C103.154 5.56182 103.064 5.47065 102.883 5.37948C102.612 5.2883 102.341 5.01478 102.07 4.74126C101.799 4.46774 101.709 4.01187 101.709 3.46483C101.709 2.91779 101.89 2.46193 102.251 2.09723C102.612 1.73254 103.244 1.55019 103.967 1.55019H106.496V8.57055H105.503V5.653H104.961ZM104.238 2.46193C104.148 2.46193 104.057 2.46193 103.967 2.46193C103.877 2.46193 103.696 2.46193 103.606 2.5531C103.425 2.64427 103.244 2.73545 103.064 2.82662C102.883 3.00897 102.793 3.19131 102.793 3.55601C102.793 3.64718 102.793 3.73835 102.793 3.73835C102.793 3.82953 102.793 3.9207 102.883 4.01187C102.974 4.19422 103.064 4.37657 103.335 4.46774C103.515 4.65009 103.877 4.65009 104.328 4.65009H105.503V2.46193H104.238ZM112.368 2.46193V8.57055H111.374V1.55019H115.439V2.46193H112.368ZM116.432 8.75289V1.55019H117.426V6.47356L122.484 1.36785V8.57055H121.491V3.64718L116.432 8.75289ZM126.188 2.46193V6.47356C126.188 7.20294 126.097 7.74999 125.826 8.02351C125.555 8.29703 125.284 8.57055 124.923 8.57055C124.742 8.66172 124.562 8.66172 124.381 8.66172C124.2 8.66172 124.11 8.66172 123.93 8.66172C123.839 8.66172 123.749 8.66172 123.749 8.66172C123.659 8.66172 123.659 8.66172 123.568 8.66172C123.568 8.66172 123.568 8.66172 123.478 8.66172C123.478 8.66172 123.478 8.66172 123.388 8.66172V7.74999C123.388 7.74999 123.478 7.74999 123.568 7.74999C123.659 7.74999 123.659 7.74999 123.749 7.74999H123.839C123.839 7.74999 123.93 7.74999 124.02 7.74999C124.11 7.74999 124.291 7.74998 124.381 7.65881C124.471 7.65881 124.562 7.56764 124.652 7.56764C124.833 7.47646 124.923 7.29412 125.013 7.11177C125.104 6.92942 125.104 6.74708 125.194 6.47356C125.194 6.38238 125.194 6.29121 125.194 6.10886C125.194 6.01769 125.194 5.92652 125.194 5.83534V1.55019H129.801V8.57055H128.807V2.46193H126.188ZM131.969 4.37657H133.414C134.227 4.37657 134.769 4.55892 135.22 5.01478C135.582 5.37948 135.853 5.83534 135.853 6.29121C135.853 6.38238 135.853 6.56473 135.853 6.6559C135.853 6.74708 135.853 6.92942 135.762 7.0206C135.672 7.38529 135.401 7.74999 135.13 8.02351C134.769 8.29703 134.317 8.47937 133.595 8.47937H131.065V1.55019H132.059V4.37657H131.969ZM133.143 7.65881C133.233 7.65881 133.324 7.65881 133.414 7.65881C133.504 7.65881 133.595 7.65881 133.685 7.65881C133.956 7.65881 134.137 7.47646 134.408 7.29412C134.588 7.11177 134.679 6.83825 134.679 6.38238C134.679 6.01769 134.588 5.74417 134.408 5.653C134.227 5.47065 134.046 5.37948 133.866 5.2883C133.685 5.2883 133.595 5.19713 133.504 5.19713C133.414 5.19713 133.233 5.19713 133.233 5.19713H131.969V7.65881H133.143ZM136.304 10.1205V7.65881H137.117C137.117 7.56764 137.208 7.47647 137.208 7.38529C137.298 7.29412 137.298 7.11177 137.388 6.92942C137.479 6.6559 137.569 6.29121 137.659 5.83534C137.75 5.37948 137.75 4.83244 137.75 4.19422V1.55019H142.537V7.65881H143.531V10.0293H142.537V8.57055H137.298V10.1205H136.304ZM138.834 2.46193V4.10305C138.834 4.74126 138.834 5.2883 138.743 5.83534C138.653 6.38238 138.563 6.83825 138.382 7.38529C138.382 7.47647 138.292 7.47646 138.292 7.56764C138.292 7.65881 138.201 7.65881 138.201 7.74999H141.543V2.46193H138.834ZM144.344 8.75289V1.55019H145.337V6.47356L150.396 1.36785V8.57055H149.402V3.64718L144.344 8.75289ZM155.273 5.653L152.654 8.57055H151.389L154.009 5.653C153.918 5.653 153.738 5.653 153.647 5.56182C153.467 5.56182 153.376 5.47065 153.196 5.37948C152.925 5.2883 152.654 5.01478 152.383 4.74126C152.112 4.46774 152.021 4.01187 152.021 3.46483C152.021 2.91779 152.202 2.46193 152.563 2.09723C152.925 1.73254 153.557 1.55019 154.28 1.55019H156.809V8.57055H155.815V5.653H155.273ZM154.641 2.46193C154.551 2.46193 154.46 2.46193 154.37 2.46193C154.28 2.46193 154.099 2.46193 154.009 2.5531C153.828 2.64427 153.647 2.73545 153.467 2.82662C153.286 3.00897 153.196 3.19131 153.196 3.55601C153.196 3.64718 153.196 3.73835 153.196 3.73835C153.196 3.73835 153.196 3.9207 153.286 4.01187C153.376 4.19422 153.467 4.37657 153.738 4.46774C153.918 4.65009 154.28 4.65009 154.731 4.65009H155.905V2.46193H154.641ZM37.1247 19.6937H36.1311V12.6733H38.3893C38.4796 12.6733 38.6603 12.6733 38.8409 12.6733C39.0216 12.6733 39.2926 12.7645 39.5636 12.8557C39.8345 12.9469 40.1958 13.1292 40.3765 13.4939C40.6475 13.7674 40.7378 14.2233 40.7378 14.7703C40.7378 14.8615 40.7378 14.9527 40.7378 15.135C40.7378 15.2262 40.7378 15.4086 40.6475 15.4997C40.5572 15.8644 40.2862 16.1379 40.0152 16.4115C39.6539 16.685 39.1119 16.8673 38.3893 16.8673H37.1247V19.6937ZM38.299 15.9556C38.3893 15.9556 38.4796 15.9556 38.5699 15.9556C38.6603 15.9556 38.7506 15.9556 38.9313 15.8644C39.1119 15.7732 39.2926 15.6821 39.4732 15.4997C39.6539 15.3174 39.7442 15.0439 39.7442 14.6792C39.7442 14.2233 39.6539 13.9498 39.3829 13.7674C39.1119 13.5851 38.8409 13.4939 38.5699 13.4939C38.4796 13.4939 38.4796 13.4939 38.3893 13.4939C38.299 13.4939 38.299 13.4939 38.2086 13.4939H37.1247V15.8644H38.299V15.9556ZM41.8217 19.7849V12.5822H42.8153V17.5055L47.8737 12.3998V19.6025H46.8801V14.6792L41.8217 19.7849ZM49.5899 18.2349C49.8609 18.4173 50.1319 18.5996 50.4029 18.6908C50.7642 18.782 51.1255 18.8731 51.4868 18.8731C52.2094 18.8731 52.8417 18.6908 53.3837 18.2349C53.8353 17.7791 54.1966 17.232 54.2869 16.5026H50.7642V15.5909H54.2869C54.1966 14.9527 53.8353 14.4056 53.3837 14.041C52.8417 13.5851 52.2997 13.4027 51.5771 13.4027C51.4868 13.4027 51.3061 13.4027 51.1255 13.4027C50.9448 13.4027 50.8545 13.4939 50.6738 13.4939C50.4932 13.5851 50.3125 13.5851 50.1319 13.6763C49.9512 13.7674 49.7706 13.8586 49.6802 14.041L48.9576 13.3116C49.3189 13.038 49.7706 12.7645 50.2222 12.6733C50.6738 12.5822 51.1255 12.491 51.5771 12.491C52.7514 12.491 53.6547 12.8557 54.3773 13.5851C55.0999 14.3145 55.4612 15.135 55.4612 16.1379C55.4612 16.2291 55.4612 16.2291 55.4612 16.3203C55.4612 16.4115 55.4612 16.4115 55.4612 16.5026C55.3709 17.3232 55.0096 18.1438 54.3773 18.782C53.745 19.5114 52.8417 19.876 51.5771 19.876C51.2158 19.876 50.8545 19.7849 50.4029 19.6937C49.9512 19.6025 49.4996 19.329 48.9576 19.0555L49.5899 18.2349ZM58.8937 13.5851V17.5967C58.8937 18.3261 58.8033 18.8731 58.5323 19.1467C58.2614 19.4202 57.9904 19.6937 57.6291 19.6937C57.4484 19.7849 57.2678 19.7849 57.0871 19.7849C56.9064 19.7849 56.8161 19.7849 56.6355 19.7849C56.5451 19.7849 56.4548 19.7849 56.4548 19.7849C56.3645 19.7849 56.3645 19.7849 56.2742 19.7849C56.2742 19.7849 56.2742 19.7849 56.1838 19.7849C56.1838 19.7849 56.1838 19.7849 56.0935 19.7849V18.8731C56.0935 18.8731 56.1838 18.8731 56.2742 18.8731C56.3645 18.8731 56.3645 18.8731 56.4548 18.8731H56.5451C56.5451 18.8731 56.6355 18.8731 56.7258 18.8731C56.8161 18.8731 56.9968 18.8731 57.0871 18.782C57.1774 18.782 57.2678 18.6908 57.3581 18.6908C57.5387 18.5996 57.6291 18.4173 57.7194 18.2349C57.8097 18.0526 57.8097 17.8702 57.9 17.5967C57.9 17.5055 57.9 17.4144 57.9 17.232C57.9 17.1408 57.9 17.0497 57.9 16.9585V12.6733H62.5068V19.6937H61.4228V13.5851H58.8937ZM65.3069 13.5851H63.5004V12.6733H68.1071V13.5851H66.3005V19.6937H65.3069V13.5851ZM68.92 16.1379C68.92 15.2262 69.2813 14.4056 70.0039 13.5851C70.7266 12.8557 71.6298 12.491 72.8041 12.491C73.9784 12.491 74.8816 12.8557 75.6043 13.5851C76.3269 14.3145 76.6882 15.2262 76.6882 16.1379C76.6882 17.0497 76.3269 17.9614 75.6043 18.6908C74.8816 19.4202 73.9784 19.7849 72.8041 19.7849C71.6298 19.7849 70.7266 19.4202 70.0039 18.6908C69.2813 17.9614 68.92 17.1408 68.92 16.1379ZM70.0039 16.1379C70.0039 16.8673 70.2749 17.5055 70.7266 18.0526C71.2685 18.5996 71.9008 18.8731 72.7138 18.8731C73.5267 18.8731 74.2493 18.5996 74.701 18.0526C75.2429 17.5055 75.4236 16.8673 75.4236 16.1379C75.4236 15.4086 75.1526 14.7703 74.701 14.2233C74.159 13.6763 73.5267 13.4027 72.7138 13.4027C71.9008 13.4027 71.1782 13.6763 70.7266 14.2233C70.2749 14.7703 70.0039 15.4086 70.0039 16.1379ZM78.7657 19.6937H77.6818V12.6733H79.94C80.0303 12.6733 80.211 12.6733 80.3916 12.6733C80.5723 12.6733 80.8433 12.7645 81.1142 12.8557C81.3852 12.9469 81.7465 13.1292 81.9272 13.4939C82.1982 13.7674 82.2885 14.2233 82.2885 14.7703C82.2885 14.8615 82.2885 14.9527 82.2885 15.135C82.2885 15.2262 82.2885 15.4086 82.1982 15.4997C82.1078 15.8644 81.8369 16.1379 81.5659 16.4115C81.2046 16.685 80.6626 16.8673 79.94 16.8673H78.6754V19.6937H78.7657ZM79.8497 15.9556C79.94 15.9556 80.0303 15.9556 80.1206 15.9556C80.211 15.9556 80.3013 15.9556 80.4819 15.8644C80.6626 15.7732 80.8433 15.6821 81.0239 15.4997C81.2046 15.3174 81.2949 15.0439 81.2949 14.6792C81.2949 14.2233 81.2046 13.9498 80.9336 13.7674C80.6626 13.5851 80.3916 13.4939 80.1206 13.4939C80.0303 13.4939 80.0303 13.4939 79.94 13.4939C79.8497 13.4939 79.8497 13.4939 79.7593 13.4939H78.6754V15.8644H79.8497V15.9556ZM83.2821 16.1379C83.2821 15.2262 83.6434 14.4056 84.366 13.5851C85.0887 12.8557 85.9919 12.491 87.1662 12.491C88.3404 12.491 89.2437 12.8557 89.9663 13.5851C90.689 14.3145 91.0503 15.2262 91.0503 16.1379C91.0503 17.0497 90.689 17.9614 89.9663 18.6908C89.2437 19.4202 88.3404 19.7849 87.1662 19.7849C85.9919 19.7849 85.0887 19.4202 84.366 18.6908C83.6434 17.9614 83.2821 17.1408 83.2821 16.1379ZM84.366 16.1379C84.366 16.8673 84.637 17.5055 85.0887 18.0526C85.6306 18.5996 86.2629 18.8731 87.0759 18.8731C87.8888 18.8731 88.6114 18.5996 89.0631 18.0526C89.605 17.5055 89.7857 16.8673 89.7857 16.1379C89.7857 15.4086 89.5147 14.7703 89.0631 14.2233C88.5211 13.6763 87.8888 13.4027 87.0759 13.4027C86.2629 13.4027 85.5403 13.6763 85.0887 14.2233C84.637 14.7703 84.366 15.4086 84.366 16.1379ZM92.0439 12.6733H94.0311C94.1214 12.6733 94.3021 12.6733 94.4827 12.6733C94.6634 12.6733 94.844 12.6733 95.115 12.7645C95.4763 12.8557 95.7473 13.038 96.0183 13.2204C96.2893 13.4939 96.4699 13.8586 96.4699 14.4056C96.4699 14.7703 96.3796 15.0439 96.1989 15.3174C96.0183 15.5909 95.8376 15.7732 95.4763 15.8644C95.928 15.9556 96.199 16.1379 96.4699 16.5026C96.7409 16.7762 96.8312 17.1408 96.8312 17.5055C96.8312 17.5967 96.8312 17.6879 96.8312 17.8702C96.8312 17.9614 96.8312 18.1438 96.7409 18.2349C96.6506 18.5996 96.4699 18.8731 96.1086 19.1467C95.7473 19.4202 95.2053 19.6025 94.3924 19.6025H91.9536V12.6733H92.0439ZM94.3021 18.782C94.7537 18.782 95.115 18.6908 95.386 18.5084C95.657 18.3261 95.7473 18.0526 95.7473 17.5967C95.7473 17.1408 95.657 16.8673 95.386 16.685C95.115 16.5026 94.7537 16.4115 94.3021 16.4115H93.0375V18.6908H94.3021V18.782ZM94.1214 15.5909C94.2117 15.5909 94.3021 15.5909 94.3924 15.5909C94.4827 15.5909 94.5731 15.5909 94.6634 15.5909C94.844 15.5909 95.0247 15.4086 95.2053 15.3174C95.386 15.135 95.4763 14.9527 95.4763 14.588C95.4763 14.4968 95.4763 14.4968 95.4763 14.4056C95.4763 14.3145 95.4763 14.3145 95.386 14.2233C95.2957 14.041 95.2053 13.9498 95.0247 13.7674C94.844 13.6763 94.573 13.5851 94.1214 13.5851H93.0375V15.6821H94.1214V15.5909Z" fill="#828282"/>
</svg>
