<svg width="60" height="60" viewBox="0 0 60 60" fill="none" xmlns="http://www.w3.org/2000/svg">
<path d="M5.75 9.48396H54.25V31.6964H55.75V3.73119C55.75 1.67217 54.075 0 52.0125 0H7.9875C5.925 0 4.25 1.67217 4.25 3.73119V31.6964H5.75V9.48396ZM7.9875 1.49747H52.0125C53.25 1.49747 54.25 2.49578 54.25 3.73119V7.9865H5.75V3.73119C5.75 2.49578 6.75 1.49747 7.9875 1.49747Z" fill="#0EB400"/>
<path d="M25.7875 18.8806L26.4625 17.5453L18.5875 13.5521C18.375 13.4398 18.125 13.4398 17.9125 13.5521L10.0375 17.5453L10.7125 18.8806L12.625 17.9072V25.4569H10.375V26.9544H13.375H23.125H26.125V25.4569H23.875V17.9197L25.7875 18.8806ZM22.375 25.4569H14.125V17.1585L18.25 15.062L22.375 17.1585V25.4569Z" fill="#0EB400"/>
<path d="M32.875 15.226H30.875V16.7234H32.875V15.226Z" fill="#0EB400"/>
<path d="M50.625 15.226H34.875V16.7234H50.625V15.226Z" fill="#0EB400"/>
<path d="M50.625 19.2192H30.125V20.7166H50.625V19.2192Z" fill="#0EB400"/>
<path d="M45.625 23.2124H30.125V24.7099H45.625V23.2124Z" fill="#0EB400"/>
<path d="M10.75 52.1618H9.25V53.6593H10.75V52.1618Z" fill="#0EB400"/>
<path d="M10.75 3.99323H9.25V5.4907H10.75V3.99323Z" fill="#0EB400"/>
<path d="M13.75 3.99323H12.25V5.4907H13.75V3.99323Z" fill="#0EB400"/>
<path d="M16.75 3.99323H15.25V5.4907H16.75V3.99323Z" fill="#0EB400"/>
<path d="M50.75 52.1618H49.25V53.6593H50.75V52.1618Z" fill="#0EB400"/>
<path d="M60 33.9426H46C45.5875 33.9426 45.25 34.2796 45.25 34.6914V36.5881H43.475L40.5 33.6306C38.75 31.8836 36.4375 30.9227 33.9625 30.9227C31.4875 30.9227 29.175 31.8836 27.425 33.6306L27.2375 33.8178C21.125 33.1065 18.1875 35.6772 17.35 36.6006L14.75 36.6381V34.6914C14.75 34.2796 14.4125 33.9426 14 33.9426H0V35.4401H13.25V55.9055H0V57.4029H14C14.4125 57.4029 14.75 57.066 14.75 56.6542V55.0319H17.3875L20.6125 58.2515C21.1875 58.8255 21.9375 59.1125 22.6875 59.1125C23.3875 59.1125 24.075 58.8505 24.6 58.3388C24.9125 58.0269 25.1375 57.64 25.2625 57.2282L26.2875 58.2515C26.8625 58.8255 27.6125 59.1125 28.3625 59.1125C29.0625 59.1125 29.75 58.8505 30.275 58.3388C30.5875 58.0269 30.8125 57.64 30.9375 57.2282L31.9625 58.2515C32.5375 58.8255 33.2875 59.1125 34.0375 59.1125C34.7375 59.1125 35.425 58.8505 35.95 58.3388C36.2625 58.0269 36.4875 57.64 36.6125 57.2282L37.6375 58.2515C38.2125 58.8255 38.9625 59.1125 39.7125 59.1125C40.4125 59.1125 41.1 58.8505 41.625 58.3388C42.2125 57.7523 42.4625 56.9537 42.3875 56.1675L43.525 55.0319L45.3125 55.0444V56.6542C45.3125 57.066 45.65 57.4029 46.0625 57.4029H60.0625V55.9055H46.75V35.4401H60V33.9426ZM40.5125 57.2906C40.025 57.7773 39.1875 57.7399 38.6625 57.2033L35.8375 54.383L33.1 51.6502L32.0375 52.7109L34.775 55.4437C35.3125 55.9803 35.35 56.8164 34.8625 57.2906C34.375 57.7773 33.5375 57.7399 33.0125 57.2033L30.1875 54.383L27.45 51.6502L26.3875 52.7109L29.125 55.4437C29.6625 55.9803 29.7 56.8164 29.2125 57.2906C28.725 57.7773 27.8875 57.7399 27.3625 57.2033L24.5375 54.383L22.5 52.349L21.4375 53.4097L23.475 55.4437C24.0125 55.9803 24.05 56.8164 23.5625 57.2906C23.075 57.7773 22.2375 57.7399 21.7125 57.2033L18.0125 53.5345H14.75V38.1355L17.7125 38.0981L18.0875 38.0856L18.3125 37.7861C18.4 37.6613 20.4625 34.9784 25.85 35.2155L18.5875 42.4657C18.45 42.603 18.3625 42.8026 18.3625 42.9898C18.3625 43.1895 18.4375 43.3767 18.5875 43.5139C19.975 44.8991 21.55 45.5854 23.35 45.5854C23.6375 45.5854 23.925 45.5729 24.225 45.5355C25.6125 45.3733 27.15 44.8492 28.9 43.9257L40.425 55.4313C40.95 55.9679 41 56.8039 40.5125 57.2906ZM43.1625 53.5345C42.9625 53.5345 42.7625 53.6093 42.625 53.7591L41.725 54.6576C41.65 54.5577 41.5625 54.4704 41.475 54.3706L40.95 54.8947L41.475 54.3706L30.25 43.1645C30.9375 42.7527 31.6375 42.291 32.3875 41.7669L32.7375 42.1163C34.5875 43.9632 37.6 43.9632 39.45 42.1163L38.3875 41.0556C37.125 42.316 35.0625 42.316 33.7875 41.0556L32.9875 40.2569C32.725 39.9949 32.3125 39.9699 32.0125 40.1821C28.7375 42.5531 26.125 43.8259 24.0375 44.063C22.5625 44.2377 21.325 43.8883 20.2 42.9649L28.4875 34.6914C29.95 33.2313 31.9 32.4327 33.9625 32.4327C36.025 32.4327 37.975 33.2313 39.4375 34.6914L42.625 37.8735C42.7625 38.0107 42.9625 38.0981 43.15 38.0981H45.25V53.5594L43.1625 53.5345Z" fill="#0EB400"/>
</svg>
