<svg width="58" height="60" viewBox="0 0 58 60" fill="none" xmlns="http://www.w3.org/2000/svg">
<g clip-path="url(#clip0)">
<path d="M6.52371 38.9351C5.04105 38.9351 3.85492 40.1331 3.85492 41.6306C3.85492 43.1281 5.04105 44.3261 6.52371 44.3261C8.00638 44.3261 9.19251 43.1281 9.19251 41.6306C9.19251 40.1331 8.00638 38.9351 6.52371 38.9351ZM6.52371 42.8286C5.8318 42.8286 5.33758 42.3294 5.33758 41.6306C5.33758 40.9317 5.8318 40.4326 6.52371 40.4326C7.21562 40.4326 7.70984 40.9317 7.70984 41.6306C7.70984 42.3294 7.21562 42.8286 6.52371 42.8286Z" fill="#0EB400"/>
<path d="M6.5237 19.9669H15.4197V22.1632H16.9023V19.9669H25.7983C25.996 19.9669 26.1937 19.8671 26.2925 19.7672C26.3914 19.5676 26.4902 19.3679 26.4902 19.1682L25.5018 7.4877C25.5018 7.08837 25.2053 6.78887 24.8099 6.78887H16.9023V4.59253H15.4197V6.78887H7.51214C7.11676 6.78887 6.82023 7.08837 6.82023 7.4877L5.83179 19.1682C5.83179 19.3679 5.93063 19.5676 6.02948 19.7672C6.12832 19.8671 6.32601 19.9669 6.5237 19.9669ZM8.1052 8.28637H24.118L25.0076 18.4694H7.31445L8.1052 8.28637Z" fill="#0EB400"/>
<path d="M7.21563 27.9534C7.21563 26.7554 8.20408 25.8569 9.29136 25.8569H40.2296C41.4157 25.8569 42.3053 26.8552 42.3053 27.9534V32.9451H43.788V27.9534C43.788 25.9567 42.2065 24.3594 40.2296 24.3594H9.29136C7.31448 24.3594 5.73297 25.9567 5.73297 27.9534V32.9451H7.21563V27.9534Z" fill="#0EB400"/>
<path d="M53.7712 0H26.6879C24.711 0 23.1295 1.59734 23.1295 3.59401V4.59235H24.6122V3.59401C24.6122 2.39601 25.6006 1.4975 26.6879 1.4975H39.5377V22.1631H41.0203V1.4975H53.8701C55.0562 1.4975 55.9458 2.49584 55.9458 3.59401V52.4126C55.9458 53.6106 54.9574 54.5092 53.8701 54.5092H52.8816H48.0383H45.1718V56.0067H47.4452L49.1255 59.5008C49.2244 59.7005 49.5209 59.9002 49.8175 59.9002H52.6839C53.0793 59.9002 53.3758 59.6007 53.3758 59.2013V56.0067H53.6724C55.6493 56.0067 57.2308 54.4093 57.2308 52.4126V3.59401C57.3296 1.59734 55.7481 0 53.7712 0ZM51.992 58.4027H50.3117L49.1255 56.0067H52.0909V58.4027H51.992Z" fill="#0EB400"/>
<path d="M25.6995 34.8418H23.8215V36.8385H25.6995V34.8418Z" fill="#0EB400"/>
<path d="M16.1116 34.8418H14.2335V36.8385H16.1116V34.8418Z" fill="#0EB400"/>
<path d="M35.3862 34.8418H33.5082V36.8385H35.3862V34.8418Z" fill="#0EB400"/>
<path d="M30.5429 29.9502H28.6649V31.9469H30.5429V29.9502Z" fill="#0EB400"/>
<path d="M20.955 29.9502H19.077V31.9469H20.955V29.9502Z" fill="#0EB400"/>
<path d="M30.5429 39.7339H28.6649V41.7306H30.5429V39.7339Z" fill="#0EB400"/>
<path d="M20.955 39.7339H19.077V41.7306H20.955V39.7339Z" fill="#0EB400"/>
<path d="M43.096 38.9351C41.6134 38.9351 40.4272 40.1331 40.4272 41.6306C40.4272 43.1281 41.6134 44.3261 43.096 44.3261C44.5787 44.3261 45.7648 43.1281 45.7648 41.6306C45.7648 40.1331 44.5787 38.9351 43.096 38.9351ZM43.096 42.8286C42.4041 42.8286 41.9099 42.3294 41.9099 41.6306C41.9099 40.9317 42.4041 40.4326 43.096 40.4326C43.7879 40.4326 44.2822 40.9317 44.2822 41.6306C44.2822 42.3294 43.7879 42.8286 43.096 42.8286Z" fill="#0EB400"/>
<path d="M49.6197 41.4308C49.5208 38.0365 46.7532 35.2411 43.3925 35.1413C41.6133 35.0415 39.9329 35.7403 38.648 36.9383C37.363 38.2362 36.6711 39.8335 36.6711 41.6305V45.4242C33.6069 44.6255 29.6531 43.9267 24.8098 43.8268C20.0653 43.727 16.1115 44.4258 12.9485 45.3243V41.6305C12.9485 39.8335 12.2566 38.1363 10.9716 36.9383C9.68661 35.6405 8.00626 35.0415 6.22707 35.1413C2.86636 35.2411 0.0987241 37.9367 -0.000120103 41.4308C-0.0989643 43.2278 0.592945 44.925 1.77908 46.2228C2.86636 47.321 4.25018 48.0198 5.73284 48.2195V52.4125C5.73284 54.4092 7.31435 56.1064 9.39008 56.1064H9.58777V59.301C9.58777 59.7004 9.8843 59.9999 10.2797 59.9999H13.1462C13.4427 59.9999 13.6404 59.8002 13.8381 59.6005L15.5184 56.1064H33.9034L35.5838 59.6005C35.6826 59.8002 35.9792 59.9999 36.2757 59.9999H39.1422C39.5376 59.9999 39.8341 59.7004 39.8341 59.301V56.1064H40.0318C42.0087 56.1064 43.689 54.509 43.689 52.4125V48.2195C45.1717 48.0198 46.5555 47.321 47.6428 46.2228C49.0266 44.925 49.7185 43.2278 49.6197 41.4308ZM12.8496 58.4025H11.1693V56.0065H14.1346L12.8496 58.4025ZM38.5491 58.4025H36.8688L35.5838 56.0065H38.5491V58.4025ZM43.096 46.722C42.7006 46.722 42.4041 47.0215 42.4041 47.4208V52.3127C42.4041 53.5107 41.4156 54.509 40.2295 54.509H39.241H34.3977H15.2219H10.3785H9.39008C8.20395 54.509 7.21551 53.5107 7.21551 52.3127V47.4208C7.21551 47.0215 6.91898 46.722 6.5236 46.722C5.13978 46.722 3.8548 46.123 2.86636 45.1247C1.87792 44.1263 1.3837 42.8285 1.48254 41.331C1.58139 38.6355 3.75596 36.539 6.32591 36.4391C7.70973 36.3393 8.99471 36.9383 9.98315 37.8368C10.9716 38.8352 11.5647 40.133 11.5647 41.5307V45.7237C10.6751 46.0232 9.8843 46.3227 9.09355 46.6222L9.68661 48.0198C12.8496 46.722 17.9895 45.1247 24.8098 45.2245C31.7289 45.3243 36.8688 46.8218 39.9329 48.1197L40.4272 46.722C39.7353 46.4225 38.9445 46.123 37.9561 45.8235V41.5307C37.9561 40.133 38.5491 38.8352 39.5376 37.8368C40.526 36.8385 41.811 36.3393 43.1948 36.4391C45.8636 36.539 47.9393 38.7353 48.0382 41.331C48.137 42.7287 47.544 44.0265 46.6544 45.1247C45.7648 46.2228 44.4798 46.722 43.096 46.722Z" fill="#0EB400"/>
</g>
<defs>
<clipPath id="clip0">
<rect width="57.2445" height="60" fill="white"/>
</clipPath>
</defs>
</svg>
